waves/alu_tb.vcd
$date
	Tue Apr 14 17:37:55 2026
$end
$version
	Icarus Verilog
$end
$timescale
	1ps
$end
$scope module ALU_tb $end
$var wire 1 ! zero $end
$var wire 16 " result [15:0] $end
$var reg 16 # a [15:0] $end
$var reg 3 $ alu_control [2:0] $end
$var reg 16 % b [15:0] $end
$var integer 32 & fail_count [31:0] $end
$var integer 32 ' test_id [31:0] $end
$scope module uut $end
$var wire 16 ( a [15:0] $end
$var wire 3 ) alu_control [2:0] $end
$var wire 16 * b [15:0] $end
$var wire 1 ! zero $end
$var reg 16 + result [15:0] $end
$upscope $end
$scope begin add_tests $end
$var parameter 32 , N $end
$var integer 32 - i [31:0] $end
$upscope $end
$scope begin and_tests $end
$var parameter 32 . N $end
$var integer 32 / i [31:0] $end
$upscope $end
$scope begin inv_tests $end
$var parameter 32 0 N $end
$var integer 32 1 i [31:0] $end
$upscope $end
$scope begin or_tests $end
$var parameter 32 2 N $end
$var integer 32 3 i [31:0] $end
$upscope $end
$scope begin shl_tests $end
$var parameter 32 4 N $end
$var integer 32 5 i [31:0] $end
$upscope $end
$scope begin shr_tests $end
$var parameter 32 6 N $end
$var integer 32 7 i [31:0] $end
$upscope $end
$scope begin sltu_tests $end
$var parameter 32 8 N $end
$var integer 32 9 i [31:0] $end
$upscope $end
$scope begin sub_tests $end
$var parameter 32 : N $end
$var integer 32 ; i [31:0] $end
$upscope $end
$scope task check_result $end
$var reg 16 < expected [15:0] $end
$var reg 16 = got [15:0] $end
$var reg 64 > id [63:0] $end
$upscope $end
$scope task check_zero $end
$var reg 1 ? expected $end
$var reg 1 @ got $end
$var reg 64 A id [63:0] $end
$upscope $end
$upscope $end
$enddefinitions $end
$comment Show the parameter values. $end
$dumpall
b1101 :
b1010 8
b10000 6
b10000 4
b110 2
b101 0
b110 .
b1011 ,
$end
#0
$dumpvars
bx A
x@
x?
bx >
bx =
bx <
bx ;
bx 9
bx 7
bx 5
bx 3
bx 1
bx /
b0 -
b1111 +
b101 *
b0 )
b1010 (
b1 '
b0 &
b101 %
b0 $
b1010 #
b1111 "
0!
$end
#10000
b1010 %
b1010 *
b101 #
b101 (
b1 -
b10 A
0?
0@
b11 '
b1 >
b1111 <
b1111 =
#20000
b1111111111110001 "
b1111111111110001 +
b1111111111111011 %
b1111111111111011 *
b1111111111110110 #
b1111111111110110 (
b10 -
b100 A
b101 '
b11 >
#30000
b1111111111110110 %
b1111111111110110 *
b1111111111111011 #
b1111111111111011 (
b11 -
b110 A
b111 '
b101 >
b1111111111110001 <
b1111111111110001 =
#40000
b1 "
b1 +
b1111111110000101 %
b1111111110000101 *
b1111100 #
b1111100 (
b100 -
b1000 A
b1001 '
b111 >
#50000
b1111111111111111 "
b1111111111111111 +
b1111111110000100 %
b1111111110000100 *
b1111011 #
b1111011 (
b101 -
b1010 A
b1011 '
b1001 >
b1 <
b1 =
#60000
1!
b0 "
b0 +
b1111111110000101 %
b1111111110000101 *
b110 -
b1100 A
b1101 '
b1011 >
b1111111111111111 <
b1111111111111111 =
#70000
0!
b1 "
b1 +
b110000000000001 %
b110000000000001 *
b1010000000000000 #
b1010000000000000 (
b111 -
b1110 A
1?
1@
b1111 '
b1101 >
b0 <
b0 =
#80000
b1111111111111110 "
b1111111111111110 +
b1111111111111111 %
b1111111111111111 *
b1111111111111111 #
b1111111111111111 (
b1000 -
b10000 A
0?
0@
b10001 '
b1111 >
b1 <
b1 =
#90000
1!
b0 "
b0 +
b1 %
b1 *
b1001 -
b10010 A
b10011 '
b10001 >
b1111111111111110 <
b1111111111111110 =
#100000
b0 %
b0 *
b0 #
b0 (
b1010 -
b10100 A
1?
1@
b10101 '
b10011 >
b0 <
b0 =
#110000
0!
b101 "
b101 +
b101 %
b101 *
b1010 #
b1010 (
b1 $
b1 )
b0 ;
b1011 -
b10110 A
b10111 '
b10101 >
#120000
b110110001 "
b110110001 +
b1001101010001111 %
b1001101010001111 *
b1001110001000000 #
b1001110001000000 (
b1 ;
b11000 A
0?
0@
b11001 '
b10111 >
b101 <
b101 =
#130000
b1111111111111011 "
b1111111111111011 +
b1010 %
b1010 *
b101 #
b101 (
b10 ;
b11010 A
b11011 '
b11001 >
b110110001 <
b110110001 =
#140000
b1111111001001111 "
b1111111001001111 +
b1001110001000000 %
b1001110001000000 *
b1001101010001111 #
b1001101010001111 (
b11 ;
b11100 A
b11101 '
b11011 >
b1111111111111011 <
b1111111111111011 =
#150000
b1111111111111011 "
b1111111111111011 +
b1111111111111011 %
b1111111111111011 *
b1111111111110110 #
b1111111111110110 (
b100 ;
b11110 A
b11111 '
b11101 >
b1111111001001111 <
b1111111001001111 =
#160000
b1111111001001111 "
b1111111001001111 +
b1011001110010001 %
b1011001110010001 *
b1011000111100000 #
b1011000111100000 (
b101 ;
b100000 A
b100001 '
b11111 >
b1111111111111011 <
b1111111111111011 =
#170000
b101 "
b101 +
b1111111111110110 %
b1111111111110110 *
b1111111111111011 #
b1111111111111011 (
b110 ;
b100010 A
b100011 '
b100001 >
b1111111001001111 <
b1111111001001111 =
#180000
b110110001 "
b110110001 +
b1011000111100000 %
b1011000111100000 *
b1011001110010001 #
b1011001110010001 (
b111 ;
b100100 A
b100101 '
b100011 >
b101 <
b101 =
#190000
b11110110 "
b11110110 +
b1111111110000101 %
b1111111110000101 *
b1111011 #
b1111011 (
b1000 ;
b100110 A
b100111 '
b100101 >
b110110001 <
b110110001 =
#200000
b1 "
b1 +
b1001111111111111 %
b1001111111111111 *
b1010000000000000 #
b1010000000000000 (
b1001 ;
b101000 A
b101001 '
b100111 >
b11110110 <
b11110110 =
#210000
1!
b0 "
b0 +
b0 %
b0 *
b0 #
b0 (
b1010 ;
b101010 A
b101011 '
b101001 >
b1 <
b1 =
#220000
b1001000110100 %
b1001000110100 *
b1001000110100 #
b1001000110100 (
b1011 ;
b101100 A
1?
1@
b101101 '
b101011 >
b0 <
b0 =
#230000
b1111111111111111 %
b1111111111111111 *
b1111111111111111 #
b1111111111111111 (
b1100 ;
b101110 A
b101111 '
b101101 >
#240000
0!
b1111111111111111 "
b1111111111111111 +
b0 %
b0 *
b0 #
b0 (
b10 $
b10 )
b0 1
b1101 ;
b110000 A
b110001 '
b101111 >
#250000
b1011001110110011 %
b1011001110110011 *
b1 1
b110010 A
0?
0@
b110011 '
b110001 >
b1111111111111111 <
b1111111111111111 =
#260000
1!
b0 "
b0 +
b0 %
b0 *
b1111111111111111 #
b1111111111111111 (
b10 1
b110100 A
b110101 '
b110011 >
#270000
b1011001110110011 %
b1011001110110011 *
b11 1
b110110 A
1?
1@
b110111 '
b110101 >
b0 <
b0 =
#280000
0!
b1100100001010001 "
b1100100001010001 +
b1111111111111111 %
b1111111111111111 *
b11011110101110 #
b11011110101110 (
b100 1
b111000 A
b111001 '
b110111 >
#290000
1!
b0 "
b0 +
b0 %
b0 *
b0 #
b0 (
b11 $
b11 )
b0 5
b101 1
b111010 A
0?
0@
b111011 '
b111001 >
b1100100001010001 <
b1100100001010001 =
#300000
b1 %
b1 *
b1 5
b111100 A
1?
1@
b111101 '
b111011 >
b0 <
b0 =
#310000
b11 %
b11 *
b10 5
b111110 A
b111111 '
b111101 >
#320000
b1111111111111111 %
b1111111111111111 *
b11 5
b1000000 A
b1000001 '
b111111 >
#330000
0!
b1 "
b1 +
b0 %
b0 *
b1 #
b1 (
b100 5
b1000010 A
b1000011 '
b1000001 >
#340000
b10 "
b10 +
b1 %
b1 *
b101 5
b1000100 A
0?
0@
b1000101 '
b1000011 >
b1 <
b1 =
#350000
b1000 "
b1000 +
b11 %
b11 *
b110 5
b1000110 A
b1000111 '
b1000101 >
b10 <
b10 =
#360000
b1000000000000000 "
b1000000000000000 +
b1111111111111111 %
b1111111111111111 *
b111 5
b1001000 A
b1001001 '
b1000111 >
b1000 <
b1000 =
#370000
b0 %
b0 *
b1000000000000000 #
b1000000000000000 (
b1000 5
b1001010 A
b1001011 '
b1001001 >
b1000000000000000 <
b1000000000000000 =
#380000
1!
b0 "
b0 +
b1 %
b1 *
b1001 5
b1001100 A
b1001101 '
b1001011 >
#390000
b1111111111111111 %
b1111111111111111 *
b1010 5
b1001110 A
1?
1@
b1001111 '
b1001101 >
b0 <
b0 =
#400000
0!
b1000000000000000 "
b1000000000000000 +
b10000 %
b10000 *
b1011 5
b1010000 A
b1010001 '
b1001111 >
#410000
b1111111111111111 "
b1111111111111111 +
b0 %
b0 *
b1111111111111111 #
b1111111111111111 (
b1100 5
b1010010 A
0?
0@
b1010011 '
b1010001 >
b1000000000000000 <
b1000000000000000 =
#420000
b1111111111111110 "
b1111111111111110 +
b1 %
b1 *
b1101 5
b1010100 A
b1010101 '
b1010011 >
b1111111111111111 <
b1111111111111111 =
#430000
b1111111111111000 "
b1111111111111000 +
b11 %
b11 *
b1110 5
b1010110 A
b1010111 '
b1010101 >
b1111111111111110 <
b1111111111111110 =
#440000
b1000000000000000 "
b1000000000000000 +
b1111111111111111 %
b1111111111111111 *
b1111 5
b1011000 A
b1011001 '
b1010111 >
b1111111111111000 <
b1111111111111000 =
#450000
1!
b0 "
b0 +
b0 %
b0 *
b0 #
b0 (
b100 $
b100 )
b0 7
b10000 5
b1011010 A
b1011011 '
b1011001 >
b1000000000000000 <
b1000000000000000 =
#460000
b1 %
b1 *
b1 7
b1011100 A
1?
1@
b1011101 '
b1011011 >
b0 <
b0 =
#470000
b11 %
b11 *
b10 7
b1011110 A
b1011111 '
b1011101 >
#480000
b1111111111111111 %
b1111111111111111 *
b11 7
b1100000 A
b1100001 '
b1011111 >
#490000
0!
b1000000000000000 "
b1000000000000000 +
b0 %
b0 *
b1000000000000000 #
b1000000000000000 (
b100 7
b1100010 A
b1100011 '
b1100001 >
#500000
b100000000000000 "
b100000000000000 +
b1 %
b1 *
b101 7
b1100100 A
0?
0@
b1100101 '
b1100011 >
b1000000000000000 <
b1000000000000000 =
#510000
b1000000000000 "
b1000000000000 +
b11 %
b11 *
b110 7
b1100110 A
b1100111 '
b1100101 >
b100000000000000 <
b100000000000000 =
#520000
b1 "
b1 +
b1111111111111111 %
b1111111111111111 *
b111 7
b1101000 A
b1101001 '
b1100111 >
b1000000000000 <
b1000000000000 =
#530000
b0 %
b0 *
b1 #
b1 (
b1000 7
b1101010 A
b1101011 '
b1101001 >
b1 <
b1 =
#540000
1!
b0 "
b0 +
b1 %
b1 *
b1001 7
b1101100 A
b1101101 '
b1101011 >
#550000
b1111111111111111 %
b1111111111111111 *
b1010 7
b1101110 A
1?
1@
b1101111 '
b1101101 >
b0 <
b0 =
#560000
0!
b1 "
b1 +
b10000 %
b10000 *
b1011 7
b1110000 A
b1110001 '
b1101111 >
#570000
b1111111111111111 "
b1111111111111111 +
b0 %
b0 *
b1111111111111111 #
b1111111111111111 (
b1100 7
b1110010 A
0?
0@
b1110011 '
b1110001 >
b1 <
b1 =
#580000
b111111111111111 "
b111111111111111 +
b1 %
b1 *
b1101 7
b1110100 A
b1110101 '
b1110011 >
b1111111111111111 <
b1111111111111111 =
#590000
b1111111111111 "
b1111111111111 +
b11 %
b11 *
b1110 7
b1110110 A
b1110111 '
b1110101 >
b111111111111111 <
b111111111111111 =
#600000
b1 "
b1 +
b1111111111111111 %
b1111111111111111 *
b1111 7
b1111000 A
b1111001 '
b1110111 >
b1111111111111 <
b1111111111111 =
#610000
1!
b0 "
b0 +
b1001000110100 %
b1001000110100 *
b0 #
b0 (
b101 $
b101 )
b0 /
b10000 7
b1111010 A
b1111011 '
b1111001 >
b1 <
b1 =
#620000
b0 %
b0 *
b1010101111001101 #
b1010101111001101 (
b1 /
b1111100 A
1?
1@
b1111101 '
b1111011 >
b0 <
b0 =
#630000
0!
b10010001101000 "
b10010001101000 +
b1111111111111111 %
b1111111111111111 *
b10010001101000 #
b10010001101000 (
b10 /
b1111110 A
b1111111 '
b1111101 >
#640000
b1001101111011111 "
b1001101111011111 +
b1001101111011111 %
b1001101111011111 *
b1111111111111111 #
b1111111111111111 (
b11 /
b10000000 A
0?
0@
b10000001 '
b1111111 >
b10010001101000 <
b10010001101000 =
#650000
b1000000100 "
b1000000100 +
b111100001111 %
b111100001111 *
b1001000110100 #
b1001000110100 (
b100 /
b10000010 A
b10000011 '
b10000001 >
b1001101111011111 <
b1001101111011111 =
#660000
1!
b0 "
b0 +
b1010101000110011 %
b1010101000110011 *
b101010111001100 #
b101010111001100 (
b101 /
b10000100 A
b10000101 '
b10000011 >
b1000000100 <
b1000000100 =
#670000
0!
b1001000110100 "
b1001000110100 +
b1001000110100 %
b1001000110100 *
b0 #
b0 (
b110 $
b110 )
b0 3
b110 /
b10000110 A
1?
1@
b10000111 '
b10000101 >
b0 <
b0 =
#680000
b1010101111001101 "
b1010101111001101 +
b0 %
b0 *
b1010101111001101 #
b1010101111001101 (
b1 3
b10001000 A
0?
0@
b10001001 '
b10000111 >
b1001000110100 <
b1001000110100 =
#690000
b1111111111111111 "
b1111111111111111 +
b1111111111111111 %
b1111111111111111 *
b10010001101000 #
b10010001101000 (
b10 3
b10001010 A
b10001011 '
b10001001 >
b1010101111001101 <
b1010101111001101 =
#700000
b1001101111011111 %
b1001101111011111 *
b1111111111111111 #
b1111111111111111 (
b11 3
b10001100 A
b10001101 '
b10001011 >
b1111111111111111 <
b1111111111111111 =
#710000
b1111100111111 "
b1111100111111 +
b111100001111 %
b111100001111 *
b1001000110100 #
b1001000110100 (
b100 3
b10001110 A
b10001111 '
b10001101 >
#720000
b1111111111111111 "
b1111111111111111 +
b1010101000110011 %
b1010101000110011 *
b101010111001100 #
b101010111001100 (
b101 3
b10010000 A
b10010001 '
b10001111 >
b1111100111111 <
b1111100111111 =
#730000
1!
b0 "
b0 +
b0 %
b0 *
b0 #
b0 (
b111 $
b111 )
b0 9
b110 3
b10010010 A
b10010011 '
b10010001 >
b1111111111111111 <
b1111111111111111 =
#740000
b1001000110100 %
b1001000110100 *
b1001000110100 #
b1001000110100 (
b1 9
b10010100 A
1?
1@
b10010101 '
b10010011 >
b0 <
b0 =
#750000
b1111111111111111 %
b1111111111111111 *
b1111111111111111 #
b1111111111111111 (
b10 9
b10010110 A
b10010111 '
b10010101 >
#760000
0!
b1 "
b1 +
b1 %
b1 *
b0 #
b0 (
b11 9
b10011000 A
b10011001 '
b10010111 >
#770000
b101011001111000 %
b101011001111000 *
b1001000110100 #
b1001000110100 (
b100 9
b10011010 A
0?
0@
b10011011 '
b10011001 >
b1 <
b1 =
#780000
b1000000000000000 %
b1000000000000000 *
b111111111111111 #
b111111111111111 (
b101 9
b10011100 A
b10011101 '
b10011011 >
#790000
b1111111111111111 %
b1111111111111111 *
b0 #
b0 (
b110 9
b10011110 A
b10011111 '
b10011101 >
#800000
1!
b0 "
b0 +
b0 %
b0 *
b1 #
b1 (
b111 9
b10100000 A
b10100001 '
b10011111 >
#810000
b1001000110100 %
b1001000110100 *
b101011001111000 #
b101011001111000 (
b1000 9
b10100010 A
1?
1@
b10100011 '
b10100001 >
b0 <
b0 =
#820000
b0 %
b0 *
b1111111111111111 #
b1111111111111111 (
b1001 9
b10100100 A
b10100101 '
b10100011 >
#830000
b1010 9
b10100110 A
b10100111 '
b10100101 >
