waves/star.vcd
$date
	Wed Apr 22 03:03:33 2026
$end
$version
	Icarus Verilog
$end
$timescale
	1ps
$end
$scope module StarCore1_tb $end
$var reg 1 ! clk $end
$var integer 32 " fail_count [31:0] $end
$var integer 32 # test_id [31:0] $end
$scope module uut $end
$var wire 1 ! clk $end
$var wire 1 $ reg_write $end
$var wire 1 % reg_dst $end
$var wire 4 & opcode [3:0] $end
$var wire 1 ' mem_write $end
$var wire 1 ( mem_to_reg $end
$var wire 1 ) mem_read $end
$var wire 1 * jump $end
$var wire 1 + bne $end
$var wire 1 , beq $end
$var wire 1 - alu_src $end
$var wire 2 . alu_op [1:0] $end
$scope module CU $end
$var wire 4 / opcode [3:0] $end
$var reg 2 0 alu_op [1:0] $end
$var reg 1 - alu_src $end
$var reg 1 , beq $end
$var reg 1 + bne $end
$var reg 1 * jump $end
$var reg 1 ) mem_read $end
$var reg 1 ( mem_to_reg $end
$var reg 1 ' mem_write $end
$var reg 1 % reg_dst $end
$var reg 1 $ reg_write $end
$upscope $end
$scope module DU $end
$var wire 2 1 alu_op [1:0] $end
$var wire 1 - alu_src $end
$var wire 1 , beq $end
$var wire 1 2 beq_taken $end
$var wire 1 + bne $end
$var wire 1 3 bne_taken $end
$var wire 1 ! clk $end
$var wire 1 * jump $end
$var wire 1 ) mem_read $end
$var wire 1 ( mem_to_reg $end
$var wire 1 ' mem_write $end
$var wire 1 % reg_dst $end
$var wire 1 $ reg_write $end
$var wire 1 4 zero_flag $end
$var wire 3 5 reg_write_dest [2:0] $end
$var wire 16 6 reg_write_data [15:0] $end
$var wire 16 7 reg_read_data_2 [15:0] $end
$var wire 16 8 reg_read_data_1 [15:0] $end
$var wire 3 9 reg_read_addr_2 [2:0] $end
$var wire 3 : reg_read_addr_1 [2:0] $end
$var wire 16 ; pc_next [15:0] $end
$var wire 16 < pc_jump [15:0] $end
$var wire 16 = pc_branch [15:0] $end
$var wire 16 > pc_after_branch [15:0] $end
$var wire 16 ? pc2 [15:0] $end
$var wire 4 @ opcode [3:0] $end
$var wire 16 A mem_read_data [15:0] $end
$var wire 13 B jump_target [12:0] $end
$var wire 16 C instr [15:0] $end
$var wire 16 D ext_im [15:0] $end
$var wire 16 E alu_result [15:0] $end
$var wire 16 F alu_operand_b [15:0] $end
$var wire 3 G alu_control [2:0] $end
$var reg 16 H pc_current [15:0] $end
$scope module alu_ctrl $end
$var wire 2 I ALUOp [1:0] $end
$var wire 4 J Opcode [3:0] $end
$var wire 6 K control_in [5:0] $end
$var reg 3 L ALU_Cnt [2:0] $end
$upscope $end
$scope module alu_unit $end
$var wire 3 M alu_control [2:0] $end
$var wire 16 N b [15:0] $end
$var wire 1 4 zero $end
$var wire 16 O a [15:0] $end
$var reg 16 P result [15:0] $end
$upscope $end
$scope module dm $end
$var wire 1 ! clk $end
$var wire 16 Q mem_access_addr [15:0] $end
$var wire 1 ) mem_read $end
$var wire 1 ' mem_write_en $end
$var wire 3 R ram_addr [2:0] $end
$var wire 16 S mem_write_data [15:0] $end
$var wire 16 T mem_read_data [15:0] $end
$upscope $end
$scope module im $end
$var wire 16 U instruction [15:0] $end
$var wire 16 V pc [15:0] $end
$var wire 4 W rom_addr [3:0] $end
$upscope $end
$scope module reg_file $end
$var wire 1 ! clk $end
$var wire 3 X reg_read_addr_1 [2:0] $end
$var wire 3 Y reg_read_addr_2 [2:0] $end
$var wire 16 Z reg_read_data_1 [15:0] $end
$var wire 16 [ reg_read_data_2 [15:0] $end
$var wire 16 \ reg_write_data [15:0] $end
$var wire 3 ] reg_write_dest [2:0] $end
$var wire 1 $ reg_write_en $end
$var integer 32 ^ i [31:0] $end
$upscope $end
$upscope $end
$upscope $end
$scope task check16 $end
$var reg 16 _ expected [15:0] $end
$var reg 16 ` got [15:0] $end
$var reg 64 a id [63:0] $end
$upscope $end
$upscope $end
$enddefinitions $end
$comment Show the parameter values. $end
$dumpall
$end
#0
$dumpvars
bx a
bx `
bx _
b1000 ^
b111 ]
b1 \
b0 [
b0 Z
b111 Y
b0 X
b0 W
b0 V
b111000000 U
b1 T
b0 S
b0 R
b0 Q
b0 P
b0 O
b0 N
b0 M
b0 L
b100000 K
b0 J
b10 I
b0 H
b0 G
b0 F
b0 E
b0 D
b111000000 C
b1110000000 B
b1 A
b0 @
b10 ?
b10 >
b10 =
b1110000000 <
b10 ;
b0 :
b111 9
b0 8
b0 7
b1 6
b111 5
14
03
02
b10 1
b10 0
b0 /
b10 .
1-
0,
0+
0*
1)
1(
0'
b0 &
0%
1$
b1 #
b0 "
0!
$end
#5000
b1000 6
b1000 \
b1000 A
b1000 T
b1 R
04
b10 E
b10 P
b10 Q
b1100000100 <
b10 F
b10 N
b1100000100 B
b10 D
b110 5
b110 ]
b110 9
b110 Y
b100 ;
b110000010 C
b110000010 U
b100 >
b1 W
b0 7
b0 S
b0 [
b1000 =
b100 ?
b10 H
b10 V
1!
#10000
0!
#15000
b0 R
b1 E
b1 P
b1 Q
b101110100000 <
b0 A
b0 T
b1 6
b1 \
b1 F
b1 N
b101110100000 B
b10 K
b10000 D
b10 5
b10 ]
1%
b0 .
b0 0
b0 1
b0 I
0)
1$
0(
0-
b10 J
b111 9
b111 Y
b10 :
b10 X
b10 &
b10 /
b10 @
b110 ;
b10010111010000 C
b10010111010000 U
b110 >
b10 W
b100110 =
b110 ?
b100 H
b100 V
b1 7
b1 S
b1 [
1!
#20000
0!
#25000
b110100110000 <
b110100110000 B
b11000 D
b11 5
b11 ]
b10 9
b10 Y
b11 :
b11 X
b0 R
b1 6
b1 \
b1000 ;
b10011010011000 C
b10011010011000 U
b1 E
b1 P
b1 Q
b1000 >
b11 W
b0 8
b0 O
b0 Z
b111000 =
b1000 ?
b110 H
b110 V
1!
#30000
0!
#35000
b101111000000 <
b11 G
b11 L
b11 M
b101111000000 B
b101 K
b1111111111100000 D
b100 5
b100 ]
1$
1%
b101 J
b111 9
b111 Y
b10 :
b10 X
b101 &
b101 /
b101 @
b1010 ;
b101010111100000 C
b101010111100000 U
b1 R
b10 6
b10 \
b1010 >
b100 W
b10 E
b10 P
b10 Q
b1111111111001010 =
b1010 ?
b1000 H
b1000 V
b1 8
b1 O
b1 Z
1!
#40000
0!
#45000
14
b0 R
b0 6
b0 \
b1000111111100 <
b0 G
b0 L
b0 M
b0 E
b0 P
b0 Q
b1111111111111110 F
b1111111111111110 N
b1000111111100 B
b100001 K
b1111111111111110 D
b10 8
b10 O
b10 Z
b11 5
b11 ]
b10 .
b10 0
b10 1
b10 I
1'
1-
0$
0%
b1 J
b11 9
b11 Y
b100 :
b100 X
b1 &
b1 /
b1 @
b1100 ;
b1100011111110 C
b1100011111110 U
b1100 >
b101 W
b1000 =
b1100 ?
b1010 H
b1010 V
1!
#50000
0!
#55000
b0 R
b1 6
b1 \
b101101010000 <
b111 G
b111 L
b111 M
04
b1 E
b1 P
b1 Q
b1000 F
b1000 N
b101101010000 B
b1001 K
b1111111111101000 D
b1000 7
b1000 S
b1000 [
b1 8
b1 O
b1 Z
b101 5
b101 ]
1$
1%
b0 .
b0 0
b0 1
b0 I
0'
0-
b1001 J
b110 9
b110 Y
b10 :
b10 X
b1001 &
b1001 /
b1001 @
b1110 ;
b1001010110101000 C
b1001010110101000 U
b1110 >
b110 W
b1111111111011110 =
b1110 ?
b1100 H
b1100 V
1!
#60000
0!
#65000
12
b0 6
b0 \
14
b0 E
b0 P
b0 Q
b1011111110100 <
b1 G
b1 L
b1 M
b1 F
b1 N
b1011111110100 B
b11011 K
b1111111111111010 D
b1 7
b1 S
b1 [
b111 5
b111 ]
b1 .
b1 0
b1 1
b1 I
1,
0$
0%
b1011 J
b111 9
b111 Y
b101 :
b101 X
b1011 &
b1011 /
b1011 @
b100 ;
b1011101111111010 C
b1011101111111010 U
b100 >
b111 W
b100 =
b10000 ?
b1110 H
b1110 V
1!
#70000
0!
#75000
b1 R
b10 6
b10 \
04
b10 E
b10 P
b10 Q
b101110100000 <
b0 G
b0 L
b0 M
b10 5
b10 ]
02
b101110100000 B
b10 K
b10000 D
1$
1%
b0 .
b0 0
b0 1
b0 I
0,
b10 J
b10 :
b10 X
b10 &
b10 /
b10 @
b110 ;
b10010111010000 C
b10010111010000 U
b110 >
b10 W
b100110 =
b110 ?
b100 H
b100 V
1!
#80000
0!
#85000
b110100110000 <
b10 F
b10 N
b110100110000 B
b11000 D
b10 7
b10 S
b10 [
b11 5
b11 ]
b10 9
b10 Y
b11 :
b11 X
b11 6
b11 \
b1000 ;
b10011010011000 C
b10011010011000 U
b11 E
b11 P
b11 Q
b1000 >
b11 W
b1 8
b1 O
b1 Z
b111000 =
b1000 ?
b110 H
b110 V
1!
#90000
0!
#95000
b101111000000 <
b11 G
b11 L
b11 M
b1 F
b1 N
b101111000000 B
b101 K
b1111111111100000 D
b1 7
b1 S
b1 [
b100 5
b100 ]
1$
1%
b101 J
b111 9
b111 Y
b10 :
b10 X
b101 &
b101 /
b101 @
b1010 ;
b101010111100000 C
b101010111100000 U
b10 R
b100 6
b100 \
b1010 >
b100 W
b100 E
b100 P
b100 Q
b1111111111001010 =
b1010 ?
b1000 H
b1000 V
b10 8
b10 O
b10 Z
1!
#100000
0!
#105000
b1 R
b10 6
b10 \
b1000111111100 <
b0 G
b0 L
b0 M
04
b10 E
b10 P
b10 Q
b1111111111111110 F
b1111111111111110 N
b1000111111100 B
b100001 K
b1111111111111110 D
b11 7
b11 S
b11 [
b100 8
b100 O
b100 Z
b11 5
b11 ]
b10 .
b10 0
b10 1
b10 I
1'
1-
0$
0%
b1 J
b11 9
b11 Y
b100 :
b100 X
b1 &
b1 /
b1 @
b1100 ;
b1100011111110 C
b1100011111110 U
b1100 >
b101 W
b1000 =
b1100 ?
b1010 H
b1010 V
1!
#110000
0!
#115000
b0 R
b1 6
b1 \
b101101010000 <
b111 G
b111 L
b111 M
b1 E
b1 P
b1 Q
b1000 F
b1000 N
b101101010000 B
b1001 K
b1111111111101000 D
b1000 7
b1000 S
b1000 [
b10 8
b10 O
b10 Z
b101 5
b101 ]
1$
1%
b0 .
b0 0
b0 1
b0 I
0'
0-
b1001 J
b110 9
b110 Y
b10 :
b10 X
b1001 &
b1001 /
b1001 @
b1110 ;
b1001010110101000 C
b1001010110101000 U
b1110 >
b110 W
b1111111111011110 =
b1110 ?
b1100 H
b1100 V
1!
#120000
0!
#125000
12
b0 6
b0 \
14
b0 E
b0 P
b0 Q
b1011111110100 <
b1 G
b1 L
b1 M
b1 F
b1 N
b1011111110100 B
b11011 K
b1111111111111010 D
b1 7
b1 S
b1 [
b1 8
b1 O
b1 Z
b111 5
b111 ]
b1 .
b1 0
b1 1
b1 I
1,
0$
0%
b1011 J
b111 9
b111 Y
b101 :
b101 X
b1011 &
b1011 /
b1011 @
b100 ;
b1011101111111010 C
b1011101111111010 U
b100 >
b111 W
b100 =
b10000 ?
b1110 H
b1110 V
1!
#130000
0!
#135000
b1 R
b11 6
b11 \
b101110100000 <
b0 G
b0 L
b0 M
04
b11 E
b11 P
b11 Q
b10 5
b10 ]
02
b101110100000 B
b10 K
b10000 D
b10 8
b10 O
b10 Z
1$
1%
b0 .
b0 0
b0 1
b0 I
0,
b10 J
b10 :
b10 X
b10 &
b10 /
b10 @
b110 ;
b10010111010000 C
b10010111010000 U
b110 >
b10 W
b100110 =
b110 ?
b100 H
b100 V
1!
#140000
0!
#145000
b110100110000 <
b11 F
b11 N
b110100110000 B
b11000 D
b11 7
b11 S
b11 [
b11 5
b11 ]
b10 9
b10 Y
b11 :
b11 X
b11 R
b110 6
b110 \
b1000 ;
b10011010011000 C
b10011010011000 U
b110 E
b110 P
b110 Q
b1000 >
b11 W
b11 8
b11 O
b11 Z
b111000 =
b1000 ?
b110 H
b110 V
1!
#150000
0!
#155000
b101111000000 <
b11 G
b11 L
b11 M
b1 F
b1 N
b101111000000 B
b101 K
b1111111111100000 D
b1 7
b1 S
b1 [
b100 5
b100 ]
1$
1%
b101 J
b111 9
b111 Y
b10 :
b10 X
b101 &
b101 /
b101 @
b1010 ;
b101010111100000 C
b101010111100000 U
b11 R
b110 6
b110 \
b1010 >
b100 W
b110 E
b110 P
b110 Q
b1111111111001010 =
b1010 ?
b1000 H
b1000 V
b11 8
b11 O
b11 Z
1!
#160000
0!
#165000
b10 R
b100 6
b100 \
b1000111111100 <
b0 G
b0 L
b0 M
b100 E
b100 P
b100 Q
b1111111111111110 F
b1111111111111110 N
b1000111111100 B
b100001 K
b1111111111111110 D
b110 7
b110 S
b110 [
b110 8
b110 O
b110 Z
b11 5
b11 ]
b10 .
b10 0
b10 1
b10 I
1'
1-
0$
0%
b1 J
b11 9
b11 Y
b100 :
b100 X
b1 &
b1 /
b1 @
b1100 ;
b1100011111110 C
b1100011111110 U
b1100 >
b101 W
b1000 =
b1100 ?
b1010 H
b1010 V
1!
#170000
0!
#175000
b0 R
b1 6
b1 \
b101101010000 <
b111 G
b111 L
b111 M
b1 E
b1 P
b1 Q
b1000 F
b1000 N
b101101010000 B
b1001 K
b1111111111101000 D
b1000 7
b1000 S
b1000 [
b11 8
b11 O
b11 Z
b101 5
b101 ]
1$
1%
b0 .
b0 0
b0 1
b0 I
0'
0-
b1001 J
b110 9
b110 Y
b10 :
b10 X
b1001 &
b1001 /
b1001 @
b1110 ;
b1001010110101000 C
b1001010110101000 U
b1110 >
b110 W
b1111111111011110 =
b1110 ?
b1100 H
b1100 V
1!
#180000
0!
#185000
12
b0 6
b0 \
14
b0 E
b0 P
b0 Q
b1011111110100 <
b1 G
b1 L
b1 M
b1 F
b1 N
b1011111110100 B
b11011 K
b1111111111111010 D
b1 7
b1 S
b1 [
b1 8
b1 O
b1 Z
b111 5
b111 ]
b1 .
b1 0
b1 1
b1 I
1,
0$
0%
b1011 J
b111 9
b111 Y
b101 :
b101 X
b1011 &
b1011 /
b1011 @
b100 ;
b1011101111111010 C
b1011101111111010 U
b100 >
b111 W
b100 =
b10000 ?
b1110 H
b1110 V
1!
#190000
0!
#195000
b10 R
b100 6
b100 \
b101110100000 <
b0 G
b0 L
b0 M
04
b100 E
b100 P
b100 Q
b10 5
b10 ]
02
b101110100000 B
b10 K
b10000 D
b11 8
b11 O
b11 Z
1$
1%
b0 .
b0 0
b0 1
b0 I
0,
b10 J
b10 :
b10 X
b10 &
b10 /
b10 @
b110 ;
b10010111010000 C
b10010111010000 U
b110 >
b10 W
b100110 =
b110 ?
b100 H
b100 V
1!
#200000
0!
#205000
b101 R
b110100110000 <
b100 F
b100 N
b110100110000 B
b11000 D
b100 7
b100 S
b100 [
b11 5
b11 ]
b10 9
b10 Y
b11 :
b11 X
b1010 6
b1010 \
b1000 ;
b10011010011000 C
b10011010011000 U
b1010 E
b1010 P
b1010 Q
b1000 >
b11 W
b110 8
b110 O
b110 Z
b111000 =
b1000 ?
b110 H
b110 V
1!
#210000
0!
#215000
b101111000000 <
b11 G
b11 L
b11 M
b1 F
b1 N
b101111000000 B
b101 K
b1111111111100000 D
b1 7
b1 S
b1 [
b100 5
b100 ]
1$
1%
b101 J
b111 9
b111 Y
b10 :
b10 X
b101 &
b101 /
b101 @
b1010 ;
b101010111100000 C
b101010111100000 U
b100 R
b1000 6
b1000 \
b1010 >
b100 W
b1000 E
b1000 P
b1000 Q
b1111111111001010 =
b1010 ?
b1000 H
b1000 V
b100 8
b100 O
b100 Z
1!
#220000
0!
#225000
b11 R
b110 6
b110 \
b1000111111100 <
b0 G
b0 L
b0 M
04
b110 E
b110 P
b110 Q
b1111111111111110 F
b1111111111111110 N
b1000111111100 B
b100001 K
b1111111111111110 D
b1010 7
b1010 S
b1010 [
b1000 8
b1000 O
b1000 Z
b11 5
b11 ]
b10 .
b10 0
b10 1
b10 I
1'
1-
0$
0%
b1 J
b11 9
b11 Y
b100 :
b100 X
b1 &
b1 /
b1 @
b1100 ;
b1100011111110 C
b1100011111110 U
b1100 >
b101 W
b1000 =
b1100 ?
b1010 H
b1010 V
1!
#230000
0!
#235000
b0 R
b1 6
b1 \
b101101010000 <
b111 G
b111 L
b111 M
b1 E
b1 P
b1 Q
b1000 F
b1000 N
b101101010000 B
b1001 K
b1111111111101000 D
b1000 7
b1000 S
b1000 [
b100 8
b100 O
b100 Z
b101 5
b101 ]
1$
1%
b0 .
b0 0
b0 1
b0 I
0'
0-
b1001 J
b110 9
b110 Y
b10 :
b10 X
b1001 &
b1001 /
b1001 @
b1110 ;
b1001010110101000 C
b1001010110101000 U
b1110 >
b110 W
b1111111111011110 =
b1110 ?
b1100 H
b1100 V
1!
#240000
0!
#245000
12
b0 6
b0 \
14
b0 E
b0 P
b0 Q
b1011111110100 <
b1 G
b1 L
b1 M
b1 F
b1 N
b1011111110100 B
b11011 K
b1111111111111010 D
b1 7
b1 S
b1 [
b1 8
b1 O
b1 Z
b111 5
b111 ]
b1 .
b1 0
b1 1
b1 I
1,
0$
0%
b1011 J
b111 9
b111 Y
b101 :
b101 X
b1011 &
b1011 /
b1011 @
b100 ;
b1011101111111010 C
b1011101111111010 U
b100 >
b111 W
b100 =
b10000 ?
b1110 H
b1110 V
1!
#250000
0!
#255000
b10 R
b101 6
b101 \
b101110100000 <
b0 G
b0 L
b0 M
04
b101 E
b101 P
b101 Q
b10 5
b10 ]
02
b101110100000 B
b10 K
b10000 D
b100 8
b100 O
b100 Z
1$
1%
b0 .
b0 0
b0 1
b0 I
0,
b10 J
b10 :
b10 X
b10 &
b10 /
b10 @
b110 ;
b10010111010000 C
b10010111010000 U
b110 >
b10 W
b100110 =
b110 ?
b100 H
b100 V
1!
#260000
0!
#265000
b110100110000 <
b101 F
b101 N
b110100110000 B
b11000 D
b101 7
b101 S
b101 [
b11 5
b11 ]
b10 9
b10 Y
b11 :
b11 X
b111 R
b1111 6
b1111 \
b1000 ;
b10011010011000 C
b10011010011000 U
b1111 E
b1111 P
b1111 Q
b1000 >
b11 W
b1010 8
b1010 O
b1010 Z
b111000 =
b1000 ?
b110 H
b110 V
1!
#270000
0!
#275000
b101111000000 <
b11 G
b11 L
b11 M
b1 F
b1 N
b101111000000 B
b101 K
b1111111111100000 D
b1 7
b1 S
b1 [
b100 5
b100 ]
1$
1%
b101 J
b111 9
b111 Y
b10 :
b10 X
b101 &
b101 /
b101 @
b1010 ;
b101010111100000 C
b101010111100000 U
b101 R
b1010 6
b1010 \
b1010 >
b100 W
b1010 E
b1010 P
b1010 Q
b1111111111001010 =
b1010 ?
b1000 H
b1000 V
b101 8
b101 O
b101 Z
1!
#280000
0!
#285000
b100 R
b1000 6
b1000 \
b1000111111100 <
b0 G
b0 L
b0 M
b1000 E
b1000 P
b1000 Q
b1111111111111110 F
b1111111111111110 N
b1000111111100 B
b100001 K
b1111111111111110 D
b1111 7
b1111 S
b1111 [
b1010 8
b1010 O
b1010 Z
b11 5
b11 ]
b10 .
b10 0
b10 1
b10 I
1'
1-
0$
0%
b1 J
b11 9
b11 Y
b100 :
b100 X
b1 &
b1 /
b1 @
b1100 ;
b1100011111110 C
b1100011111110 U
b1100 >
b101 W
b1000 =
b1100 ?
b1010 H
b1010 V
1!
#290000
0!
#295000
b0 R
b1 6
b1 \
b101101010000 <
b111 G
b111 L
b111 M
b1 E
b1 P
b1 Q
b1000 F
b1000 N
b101101010000 B
b1001 K
b1111111111101000 D
b1000 7
b1000 S
b1000 [
b101 8
b101 O
b101 Z
b101 5
b101 ]
1$
1%
b0 .
b0 0
b0 1
b0 I
0'
0-
b1001 J
b110 9
b110 Y
b10 :
b10 X
b1001 &
b1001 /
b1001 @
b1110 ;
b1001010110101000 C
b1001010110101000 U
b1110 >
b110 W
b1111111111011110 =
b1110 ?
b1100 H
b1100 V
1!
#300000
0!
#305000
12
b0 6
b0 \
14
b0 E
b0 P
b0 Q
b1011111110100 <
b1 G
b1 L
b1 M
b1 F
b1 N
b1011111110100 B
b11011 K
b1111111111111010 D
b1 7
b1 S
b1 [
b1 8
b1 O
b1 Z
b111 5
b111 ]
b1 .
b1 0
b1 1
b1 I
1,
0$
0%
b1011 J
b111 9
b111 Y
b101 :
b101 X
b1011 &
b1011 /
b1011 @
b100 ;
b1011101111111010 C
b1011101111111010 U
b100 >
b111 W
b100 =
b10000 ?
b1110 H
b1110 V
1!
#310000
0!
#315000
b11 R
b110 6
b110 \
b101110100000 <
b0 G
b0 L
b0 M
04
b110 E
b110 P
b110 Q
b10 5
b10 ]
02
b101110100000 B
b10 K
b10000 D
b101 8
b101 O
b101 Z
1$
1%
b0 .
b0 0
b0 1
b0 I
0,
b10 J
b10 :
b10 X
b10 &
b10 /
b10 @
b110 ;
b10010111010000 C
b10010111010000 U
b110 >
b10 W
b100110 =
b110 ?
b100 H
b100 V
1!
#320000
0!
#325000
b10 R
b110100110000 <
b110 F
b110 N
b110100110000 B
b11000 D
b110 7
b110 S
b110 [
b11 5
b11 ]
b10 9
b10 Y
b11 :
b11 X
b10101 6
b10101 \
b1000 ;
b10011010011000 C
b10011010011000 U
b10101 E
b10101 P
b10101 Q
b1000 >
b11 W
b1111 8
b1111 O
b1111 Z
b111000 =
b1000 ?
b110 H
b110 V
1!
#330000
0!
#335000
b101111000000 <
b11 G
b11 L
b11 M
b1 F
b1 N
b101111000000 B
b101 K
b1111111111100000 D
b1 7
b1 S
b1 [
b100 5
b100 ]
1$
1%
b101 J
b111 9
b111 Y
b10 :
b10 X
b101 &
b101 /
b101 @
b1010 ;
b101010111100000 C
b101010111100000 U
b110 R
b1100 6
b1100 \
b1010 >
b100 W
b1100 E
b1100 P
b1100 Q
b1111111111001010 =
b1010 ?
b1000 H
b1000 V
b110 8
b110 O
b110 Z
1!
#340000
0!
#345000
b101 R
b1010 6
b1010 \
b1000111111100 <
b0 G
b0 L
b0 M
04
b1010 E
b1010 P
b1010 Q
b1111111111111110 F
b1111111111111110 N
b1000111111100 B
b100001 K
b1111111111111110 D
b10101 7
b10101 S
b10101 [
b1100 8
b1100 O
b1100 Z
b11 5
b11 ]
b10 .
b10 0
b10 1
b10 I
1'
1-
0$
0%
b1 J
b11 9
b11 Y
b100 :
b100 X
b1 &
b1 /
b1 @
b1100 ;
b1100011111110 C
b1100011111110 U
b1100 >
b101 W
b1000 =
b1100 ?
b1010 H
b1010 V
1!
#350000
0!
#355000
b0 R
b1 6
b1 \
b101101010000 <
b111 G
b111 L
b111 M
b1 E
b1 P
b1 Q
b1000 F
b1000 N
b101101010000 B
b1001 K
b1111111111101000 D
b1000 7
b1000 S
b1000 [
b110 8
b110 O
b110 Z
b101 5
b101 ]
1$
1%
b0 .
b0 0
b0 1
b0 I
0'
0-
b1001 J
b110 9
b110 Y
b10 :
b10 X
b1001 &
b1001 /
b1001 @
b1110 ;
b1001010110101000 C
b1001010110101000 U
b1110 >
b110 W
b1111111111011110 =
b1110 ?
b1100 H
b1100 V
1!
#360000
0!
#365000
12
b0 6
b0 \
14
b0 E
b0 P
b0 Q
b1011111110100 <
b1 G
b1 L
b1 M
b1 F
b1 N
b1011111110100 B
b11011 K
b1111111111111010 D
b1 7
b1 S
b1 [
b1 8
b1 O
b1 Z
b111 5
b111 ]
b1 .
b1 0
b1 1
b1 I
1,
0$
0%
b1011 J
b111 9
b111 Y
b101 :
b101 X
b1011 &
b1011 /
b1011 @
b100 ;
b1011101111111010 C
b1011101111111010 U
b100 >
b111 W
b100 =
b10000 ?
b1110 H
b1110 V
1!
#370000
0!
#375000
b11 R
b111 6
b111 \
b101110100000 <
b0 G
b0 L
b0 M
04
b111 E
b111 P
b111 Q
b10 5
b10 ]
02
b101110100000 B
b10 K
b10000 D
b110 8
b110 O
b110 Z
1$
1%
b0 .
b0 0
b0 1
b0 I
0,
b10 J
b10 :
b10 X
b10 &
b10 /
b10 @
b110 ;
b10010111010000 C
b10010111010000 U
b110 >
b10 W
b100110 =
b110 ?
b100 H
b100 V
1!
#380000
0!
#385000
b110100110000 <
b111 F
b111 N
b110100110000 B
b11000 D
b111 7
b111 S
b111 [
b11 5
b11 ]
b10 9
b10 Y
b11 :
b11 X
b110 R
b11100 6
b11100 \
b1000 ;
b10011010011000 C
b10011010011000 U
b11100 E
b11100 P
b11100 Q
b1000 >
b11 W
b10101 8
b10101 O
b10101 Z
b111000 =
b1000 ?
b110 H
b110 V
1!
#390000
0!
#395000
b101111000000 <
b11 G
b11 L
b11 M
b1 F
b1 N
b101111000000 B
b101 K
b1111111111100000 D
b1 7
b1 S
b1 [
b100 5
b100 ]
1$
1%
b101 J
b111 9
b111 Y
b10 :
b10 X
b101 &
b101 /
b101 @
b1010 ;
b101010111100000 C
b101010111100000 U
b111 R
b1110 6
b1110 \
b1010 >
b100 W
b1110 E
b1110 P
b1110 Q
b1111111111001010 =
b1010 ?
b1000 H
b1000 V
b111 8
b111 O
b111 Z
1!
#400000
0!
#405000
b110 R
b1100 6
b1100 \
b1000111111100 <
b0 G
b0 L
b0 M
b1100 E
b1100 P
b1100 Q
b1111111111111110 F
b1111111111111110 N
b1000111111100 B
b100001 K
b1111111111111110 D
b11100 7
b11100 S
b11100 [
b1110 8
b1110 O
b1110 Z
b11 5
b11 ]
b10 .
b10 0
b10 1
b10 I
1'
1-
0$
0%
b1 J
b11 9
b11 Y
b100 :
b100 X
b1 &
b1 /
b1 @
b1100 ;
b1100011111110 C
b1100011111110 U
b1100 >
b101 W
b1000 =
b1100 ?
b1010 H
b1010 V
1!
#410000
0!
#415000
b0 R
b1 6
b1 \
b101101010000 <
b111 G
b111 L
b111 M
b1 E
b1 P
b1 Q
b1000 F
b1000 N
b101101010000 B
b1001 K
b1111111111101000 D
b1000 7
b1000 S
b1000 [
b111 8
b111 O
b111 Z
b101 5
b101 ]
1$
1%
b0 .
b0 0
b0 1
b0 I
0'
0-
b1001 J
b110 9
b110 Y
b10 :
b10 X
b1001 &
b1001 /
b1001 @
b1110 ;
b1001010110101000 C
b1001010110101000 U
b1110 >
b110 W
b1111111111011110 =
b1110 ?
b1100 H
b1100 V
1!
#420000
0!
#425000
12
b0 6
b0 \
14
b0 E
b0 P
b0 Q
b1011111110100 <
b1 G
b1 L
b1 M
b1 F
b1 N
b1011111110100 B
b11011 K
b1111111111111010 D
b1 7
b1 S
b1 [
b1 8
b1 O
b1 Z
b111 5
b111 ]
b1 .
b1 0
b1 1
b1 I
1,
0$
0%
b1011 J
b111 9
b111 Y
b101 :
b101 X
b1011 &
b1011 /
b1011 @
b100 ;
b1011101111111010 C
b1011101111111010 U
b100 >
b111 W
b100 =
b10000 ?
b1110 H
b1110 V
1!
#430000
0!
#435000
b100 R
b1000 6
b1000 \
b101110100000 <
b0 G
b0 L
b0 M
04
b1000 E
b1000 P
b1000 Q
b10 5
b10 ]
02
b101110100000 B
b10 K
b10000 D
b111 8
b111 O
b111 Z
1$
1%
b0 .
b0 0
b0 1
b0 I
0,
b10 J
b10 :
b10 X
b10 &
b10 /
b10 @
b110 ;
b10010111010000 C
b10010111010000 U
b110 >
b10 W
b100110 =
b110 ?
b100 H
b100 V
1!
#440000
0!
#445000
b10 R
b110100110000 <
b1000 F
b1000 N
b110100110000 B
b11000 D
b1000 7
b1000 S
b1000 [
b11 5
b11 ]
b10 9
b10 Y
b11 :
b11 X
b100100 6
b100100 \
b1000 ;
b10011010011000 C
b10011010011000 U
b100100 E
b100100 P
b100100 Q
b1000 >
b11 W
b11100 8
b11100 O
b11100 Z
b111000 =
b1000 ?
b110 H
b110 V
1!
#450000
0!
#455000
b101111000000 <
b11 G
b11 L
b11 M
b1 F
b1 N
b101111000000 B
b101 K
b1111111111100000 D
b1 7
b1 S
b1 [
b100 5
b100 ]
1$
1%
b101 J
b111 9
b111 Y
b10 :
b10 X
b101 &
b101 /
b101 @
b1010 ;
b101010111100000 C
b101010111100000 U
b0 R
b10000 6
b10000 \
b1010 >
b100 W
b10000 E
b10000 P
b10000 Q
b1111111111001010 =
b1010 ?
b1000 H
b1000 V
b1000 8
b1000 O
b1000 Z
1!
#460000
0!
#465000
b111 R
b1110 6
b1110 \
b1000111111100 <
b0 G
b0 L
b0 M
04
b1110 E
b1110 P
b1110 Q
b1111111111111110 F
b1111111111111110 N
b1000111111100 B
b100001 K
b1111111111111110 D
b100100 7
b100100 S
b100100 [
b10000 8
b10000 O
b10000 Z
b11 5
b11 ]
b10 .
b10 0
b10 1
b10 I
1'
1-
0$
0%
b1 J
b11 9
b11 Y
b100 :
b100 X
b1 &
b1 /
b1 @
b1100 ;
b1100011111110 C
b1100011111110 U
b1100 >
b101 W
b1000 =
b1100 ?
b1010 H
b1010 V
1!
#470000
0!
#475000
14
b0 R
b0 6
b0 \
b101101010000 <
b111 G
b111 L
b111 M
b0 E
b0 P
b0 Q
b1000 F
b1000 N
b101101010000 B
b1001 K
b1111111111101000 D
b1000 7
b1000 S
b1000 [
b1000 8
b1000 O
b1000 Z
b101 5
b101 ]
1$
1%
b0 .
b0 0
b0 1
b0 I
0'
0-
b1001 J
b110 9
b110 Y
b10 :
b10 X
b1001 &
b1001 /
b1001 @
b1110 ;
b1001010110101000 C
b1001010110101000 U
b1110 >
b110 W
b1111111111011110 =
b1110 ?
b1100 H
b1100 V
1!
#480000
0!
#485000
b111 R
b1111111111111111 6
b1111111111111111 \
b1011111110100 <
b1 G
b1 L
b1 M
b1 F
b1 N
04
b1111111111111111 E
b1111111111111111 P
b1111111111111111 Q
02
b1011111110100 B
b11011 K
b1111111111111010 D
b1 7
b1 S
b1 [
b0 8
b0 O
b0 Z
b111 5
b111 ]
b1 .
b1 0
b1 1
b1 I
1,
0$
0%
b1011 J
b111 9
b111 Y
b101 :
b101 X
b1011 &
b1011 /
b1011 @
b10000 ;
b1011101111111010 C
b1011101111111010 U
b10000 >
b111 W
b100 =
b10000 ?
b1110 H
b1110 V
1!
#490000
0!
